Processing and Analyzing Financial Data with R
…
# print available indices
print(tq_index_options())

##  [1] "DOWJONES"    "DJI"         "DJT"         "DJU"        
##  [5] "SP100"       "SP400"       "SP500"       "SP600"      
##  [9] "RUSSELL1000" "RUSSELL2000" "RUSSELL3000" "AMEX"       
## [13] "AMEXGOLD"    "AMEXOIL"     "NASDAQ"      "NASDAQ100"  
## [17] "NYSE"        "SOX"

Let’s get information for "DOWJONES".

# get components of "DOWJONES"
print(tq_index("DOWJONES"))

## # A tibble: 65 × 2
##    symbol                      company
##     <chr>                        <chr>
## 1     MMM                           3M
## 2     ALK             ALASKA AIR GROUP
## 3     AAL AMERICAN AIRLINES GROUP INC.
## 4     AEP      AMERICAN ELECTRIC POWER
## 5     AXP             AMERICAN EXPRESS
## 6     AWK         AMERICAN WATER WORKS
## 7    AAPL                        APPLE
## 8     CAR            AVIS BUDGET GROUP
## 9     CAT                  CATERPILLAR
## 10    CNP           CENTERPOINT ENERGY
## # ... with 55 more rows
…
